878781 792969 525
382530 222178 443
546387 472154 470
29549 461066 449
136757 138856 331
715181 270535 509
235413 595647 470
997943 804915 525
812339 516997 509
965154 842722 507
515390 356036 470
164026 345807 443
187711 220860 386
973197 304163 525
497621 410316 444
244810 645171 509
838303 974365 507
816642 598014 509
418169 72053 449
345867 390421 441
773030 213300 509
579437 226784 470
774621 650424 504
244518 466926 449
399682 987681 525
964848 458418 525
43760 61391 340
357253 203718 443
452687 142791 449
446555 259745 449
379903 357964 423
188197 631626 509
665309 56861 509
721554 819947 468
566547 172592 470
813104 892001 525
823218 937830 525
652356 604054 509
510082 718014 509
222943 71970 386
305835 298440 371
115149 281520 443
156698 631263 509
606151 16469 470
13087 188777 383
699084 377204 509
335432 684804 509
915617 395227 525
681088 263109 509
406266 594410 470
685188 843648 525
763574 246496 509
925379 807711 525
671167 878854 525
192430 325408 443
464870 831198 509
668563 74544 509
437603 471999 444
699233 202217 509
989075 45162 525
292737 685483 509
394463 937104 525
976394 451151 525
339165 926380 525
481642 510015 426
246094 398128 441
952528 536487 525
988557 706014 525
631798 272081 509
615499 589536 447
883616 159896 525
265307 997321 525
555632 417776 470
400415 998242 525
593349 41068 470
776302 478899 509
846960 589130 525
219643 351880 443
530496 105403 470
869615 57826 525
861399 688256 525
232113 704694 509
318599 822374 509
168778 240063 443
600988 43110 470
242183 318959 407
349867 262925 441
984801 272218 525
697774 432201 509
330720 894224 525
364163 342489 441
399806 156219 443
451252 366198 449
348743 98505 443
266067 842925 525
948672 738995 525
219180 949006 525
246805 730705 509
536913 481781 470
997333 424504 525
122307 846921 525
579164 714343 509
2617 387853 443
95132 342679 443
134792 810484 509
950495 112313 525
419186 872319 525
827257 513250 509
627026 539020 509
941538 99822 525
148290 71800 375
14034 359543 443
72979 109857 354
920609 289155 525
237765 676330 509
146315 215152 383
598509 737776 509
143089 623317 470
556137 722901 509
523590 681097 509
838764 668728 525
14712 141086 354
427552 556548 470
743886 866427 525
207753 751956 509
756851 518048 509
724081 227154 509
932144 435461 525
796715 204564 509
423318 381143 449
63641 499043 449
663991 164920 509
876108 88704 525
386760 977379 525
652247 965104 525
870989 591513 525
59007 555151 470
23812 157288 383
659706 944468 525
814254 903057 525
969013 459120 525
36876 879403 525
64285 202449 383
311968 404057 441
437139 254897 449
995155 830726 525
962357 712091 525
378233 763725 509
230252 87942 386
275095 190750 443
80622 470333 449
514730 740609 509
375239 315614 441
755374 953286 525
974390 309926 525
502461 259297 449
149439 781456 509
993856 15518 525
903201 684697 525
282333 344239 389
378153 605137 470
472135 322287 449
958618 519541 525
599515 286442 470
808994 684501 504
536216 576793 452
63155 845532 525
313514 653005 509
387324 699638 509
401999 249260 441
132001 731994 509
418336 761555 509
525267 54595 470
337939 539098 470
431319 360143 449
805594 29593 509
646200 354416 509
773145 241647 509
311385 786460 509
353742 401987 436
95917 941532 525
674128 662324 442
92934 727865 509
584482 172543 470
66374 82748 351
873811 877032 432
322651 688257 509
124252 360433 443
229971 786526 509
640917 819667 504
20287 2290 279
606484 803272 509
712512 664945 504
338162 910904 525
67992 415215 449
56455 86895 351
690037 517074 509
89522 852603 525
408007 826540 509
497537 523354 470
