310969 501407 449
891016 990306 507
81706 628475 509
304574 816854 509
780637 866691 525
13547 652903 509
373144 675999 509
327494 581634 470
529243 737748 509
223931 662169 509
119697 666273 509
344327 384455 441
750958 953036 525
731560 895910 525
139872 948235 525
96630 579372 470
338446 821285 509
503986 745668 509
906702 970954 507
90173 968963 525
368970 875523 525
291720 849068 525
854249 859176 388
410509 806717 509
305910 323600 384
209056 757478 509
870790 929869 476
787510 802153 468
964618 989851 458
569610 942032 525
582427 833837 509
588442 650328 509
175363 804884 509
77425 636318 509
918442 977757 507
139887 880460 525
47686 624969 470
958269 969554 414
247720 819642 509
773992 783153 437
926485 981424 507
380049 661339 509
196273 218172 386
319316 435729 449
778431 809319 468
891746 910528 476
933800 971867 507
256932 645737 509
838552 973992 507
177257 839774 525
768110 855189 525
847516 893133 445
7198 157726 383
796215 814987 406
641535 954215 525
835648 858981 525
620439 850429 525
379835 428876 449
523495 965809 525
969525 970201 321
312819 883127 525
685368 952330 525
475640 873452 525
252695 297073 407
67006 117281 354
727244 915541 525
190196 377153 443
387604 973741 525
96238 755086 509
250040 989434 525
221803 521341 470
265073 314820 407
863953 989933 507
441938 866313 525
600047 765579 509
480035 886169 525
476571 635658 509
775658 912084 525
760105 781481 468
806070 812004 406
713609 774452 468
652985 783764 504
931123 977192 507
816332 916836 525
789788 789817 194
659052 846317 525
392017 653322 509
55412 804670 509
922048 938487 476
546458 777677 509
15848 550958 470
336949 868667 525
879622 924166 476
381366 784929 509
554320 613839 434
507040 766117 509
501700 821479 509
418206 721590 509
695150 718425 504
761943 772146 468
595696 827186 509
106979 429992 449
356014 560602 470
783909 915876 525
794799 812781 468
538250 561151 452
750373 958848 525
389506 440876 449
408079 870783 525
256253 395967 441
784916 856930 525
68424 268644 443
430618 573972 470
668394 677733 385
262076 771083 509
306961 866679 525
373767 541060 470
666711 893877 525
451014 810984 509
463321 754821 509
100430 385922 443
459087 606611 470
983299 990255 427
380962 817307 509
636053 648595 416
832420 978999 525
234815 850772 525
769715 819275 468
291815 544937 470
472397 670465 509
480220 605090 470
978228 987719 427
241409 841425 525
715403 906639 525
732156 817235 468
54839 79972 351
31474 322099 443
969975 974602 458
193616 541915 470
559937 749253 509
499648 795504 509
134550 507944 449
8146 550742 470
21913 904231 525
847905 998694 507
809407 941196 525
103094 126493 354
962513 990746 458
646456 953551 525
982407 991592 427
710906 917097 525
882381 970952 507
616686 975257 525
544018 662516 509
632277 854974 525
778480 980902 525
16954 853964 525
572799 694468 509
312110 764399 509
774956 828569 468
664583 927246 525
841479 971291 507
655866 957136 525
995265 999778 440
465176 917253 525
568108 900471 525
40021 833756 509
555037 713663 509
789163 967702 525
235750 909551 525
543653 924984 525
324629 951376 525
846931 931430 476
617112 738520 509
486099 669418 509
392133 516653 470
45264 394055 443
774466 901085 525
377552 810955 509
993913 999562 440
840000 877097 432
132704 745707 509
105349 852747 525
191705 932825 525
928983 937226 414
243595 384945 441
546357 798212 509
514012 780639 509
206761 558532 470
253008 628132 509
851110 861980 419
226961 259183 443
975011 989494 427
725434 981415 525
651948 881081 525
98134 926641 525
891338 997676 507
349592 738618 509
871419 950363 507
760112 878869 525
618296 951965 525
462218 691187 509
213105 805803 509
653466 672766 442
864187 940024 507
343667 711501 509
243668 688732 509
769346 932106 525
888914 900366 370
620788 766882 509
340778 385430 441
559569 676824 509
263669 801807 509
691209 715448 504
323904 479343 449
356870 691174 509
139466 727353 509
639624 741972 504
656915 850531 525
671269 694984 442
790642 989574 525
958530 968999 414
59483 828091 509
212545 759071 509
278204 324289 389
184823 485731 449
362910 679793 509
855564 896770 445
361766 996295 525
441894 852676 525
43538 897210 525
852589 963480 507
747172 775576 468
467797 605793 470
646045 732479 504
464746 466248 369
450640 761845 509
971184 974907 383
228603 773235 509
749921 778932 468
215376 386827 443
290590 651310 509
906877 919525 476
363090 407690 436
149373 821509 509
309156 882167 525
990858 999582 440
827046 888252 525
424138 795192 509
487081 568778 470
